<svg width="138px" height="139px" viewBox="0 0 138 139">
    <desc>Created with Sketch.</desc>
    <defs>
        <polygon id="path-1" points="0.65203141 0.201707067 49.7111642 0.201707067 49.7111642 57.8869239 0.65203141 57.8869239">
        </polygon>
    </defs>
    <g id="My_profile_1" stroke="none" stroke-width="1" fill="none" fill-rule="evenodd"><g id="Profile_uploaded-CV" transform="translate(-1100.000000, -261.000000)">
        <g id="Group-10" transform="translate(852.000000, 177.000000)">
            <g id="Group-6" transform="translate(212.000000, 84.188291)">
                <g id="Doc-uploaeded" transform="translate(36.000000, 0.000000)">
                    <circle id="Oval" fill="#FFF8FB" cx="69" cy="69" r="69"/>
                    <g id="Group-12" transform="translate(34.000000, 29.000000)">
                        <polygon id="Fill-1" fill="#F5E0E7" points="0.554933424 14.3344486 1.53615568 77.1347217 57.7908501 77.1347217 59.7860703 73.035029 6.43885285 73.035029 6.13567771 10.5843633"/>
                        <g id="Group-11" transform="translate(0.000000, 0.341413)">
                            <path d="M56.7206555,78.5250939 L4.60252646,78.5250939 C2.06445886,78.5250939 0.000273130761,76.4609082 0.000273130761,73.9228406 L0.000273130761,15.6107887 C0.000273130761,14.252646 0.529463981,12.974394 1.49020143,12.0143394 L11.5926255,1.91191533 C12.6052578,0.899283032 13.9517924,0.341413452 15.3850461,0.341413452 L56.7206555,0.341413452 C59.2580403,0.341413452 61.322226,2.40559918 61.322226,4.94298395 L61.322226,9.54182315 C61.322226,10.390577 60.6339365,11.0781837 59.7858655,11.0781837 C58.9377945,11.0781837 58.249505,10.390577 58.249505,9.54182315 L58.249505,4.94298395 C58.249505,4.09969273 57.5632639,3.41413452 56.7206555,3.41413452 L15.3850461,3.41413452 C14.7725504,3.41413452 14.1982929,3.65175828 13.7660635,4.08467054 L3.66295664,14.1870946 C3.28193923,14.5674292 3.0729942,15.0734039 3.0729942,15.6107887 L3.0729942,73.9228406 C3.0729942,74.7661318 3.75855241,75.4523728 4.60252646,75.4523728 L56.7206555,75.4523728 C57.5632639,75.4523728 58.249505,74.7661318 58.249505,73.9228406 L58.249505,60.1270058 C58.249505,59.278252 58.9377945,58.5906453 59.7858655,58.5906453 C60.6339365,58.5906453 61.322226,59.278252 61.322226,60.1270058 L61.322226,73.9228406 C61.322226,76.4609082 59.2580403,78.5250939 56.7206555,78.5250939" id="Fill-2" fill="#FF4081"/>
                            <path d="M18.6970297,19.9753499 L7.96299078,19.9753499 C7.11491977,19.9753499 6.42663025,19.2877433 6.42663025,18.4389894 C6.42663025,17.5902356 7.11491977,16.9026289 7.96299078,16.9026289 L15.6243086,16.9026289 L15.6243086,9.24199385 C15.6243086,8.39324001 16.3125982,7.70563332 17.1606692,7.70563332 C18.0087402,7.70563332 18.6970297,8.39324001 18.6970297,9.24199385 L18.6970297,19.9753499 Z" id="Fill-4" fill="#FF4081"/>
                            <g id="Group-8" transform="translate(19.801980, 12.973711)">
                                <mask id="mask-2" fill="white">
                                    <use xlink:href="#path-1"/>
                                </mask>
                                <g id="Clip-7"/>
                                <path d="M15.1948788,57.8869239 C11.3109594,57.8869239 7.65851827,56.3744623 4.91150563,53.6274496 C2.164493,50.880437 0.65203141,47.2286787 0.65203141,43.3440765 C0.65203141,39.4587914 2.164493,35.8070331 4.91150563,33.0600205 L34.8261523,3.19044042 C36.7530898,1.2635029 39.316422,0.201707067 42.0429498,0.201707067 C44.7701605,0.201707067 47.3328098,1.2635029 49.261113,3.19112325 C49.8613179,3.7913281 49.8613179,4.76435644 49.261113,5.36456128 C48.6609082,5.96340048 47.6885626,5.9640833 47.0883578,5.36387846 C45.7404575,4.01597815 43.9487197,3.27442813 42.0429498,3.27442813 C40.1371799,3.27442813 38.3454421,4.01597815 36.9982247,5.36387846 L7.08357801,35.2334585 C4.91765108,37.3993855 3.72475248,40.2795493 3.72475248,43.3440765 C3.72475248,46.407238 4.91765108,49.2880847 7.08426084,51.4546944 C9.2508706,53.6213042 12.1317173,54.8142028 15.1948788,54.8142028 C18.2587231,54.8142028 21.1395698,53.6213042 23.3061796,51.4546944 L47.0890406,27.7162171 C47.6899283,27.1166951 48.6629566,27.1173779 49.2624787,27.7182656 C49.8620007,28.3191533 49.860635,29.2921816 49.2604302,29.8910208 L25.478252,53.6281325 C22.7319222,56.3744623 19.0794811,57.8869239 15.1948788,57.8869239" id="Fill-6" fill="#FF4081" mask="url(#mask-2)"/>
                            </g>
                            <path d="M34.9975418,62.186958 C33.493957,62.186958 31.9903721,61.6147491 30.8452714,60.4696483 C28.5557528,58.1801297 28.5557528,54.4546262 30.8452714,52.1651075 L60.7599181,22.2955275 C61.3601229,21.6966883 62.3324684,21.6966883 62.9319904,22.297576 C63.5315125,22.8977808 63.5308296,23.8708091 62.9306248,24.4703312 L33.0173438,54.3385456 C31.9268692,55.429703 31.9268692,57.2057357 33.0180266,58.2968931 C34.1119153,59.3894162 35.8865825,59.3880505 36.9763742,58.2968931 L66.8910208,28.4273131 C67.4919085,27.8277911 68.464254,27.8291567 69.063776,28.4293616 C69.6632981,29.0295664 69.6626152,30.0025947 69.0624104,30.6021168 L39.1484466,60.4703312 C38.0040287,61.6147491 36.5011267,62.186958 34.9975418,62.186958" id="Fill-9" fill="#FF4081"/>
                        </g>
                    </g>
                </g>
            </g>
        </g>
    </g>
    </g>
</svg>